1 Toy dataset – Optimal Transport on Categorical Data for Counterfactuals using Compositional Data and Dirichlet Transport
…
Assume that each of the three components A, B, and C are probabilities for an observation to be in class A, B, or C. Hence, for each observation, the sum of these three components always equals 1. Further assume that the observation come from two groups: group 0 or group 1.

col_groups <- c("0" = "red", "1" = "blue")
toydataset <- as_tibble(toydataset) |> 
  mutate(
    group = factor(group), 
    colour = factor(group, levels = c(1, 0), labels = c("blue", "red"))
  )
toydataset

# A tibble: 61 × 5
       A      B     C group colour
   <dbl>  <dbl> <dbl> <fct> <fct> 
 1 0.371 0.145  0.485 0     red   
 2 0.402 0.207  0.390 0     red   
 3 0.400 0.285  0.315 0     red   
 4 0.465 0.265  0.270 0     red   
 5 0.401 0.142  0.457 0     red   
 6 0.372 0.160  0.468 0     red   
 7 0.574 0.225  0.201 0     red   
 8 0.447 0.0792 0.473 0     red   
 9 0.318 0.191  0.490 0     red   
10 0.456 0.156  0.388 0     red   
# ℹ 51 more rows
…
